
{
  "logLevel":"DEBUG",
  "dateFormat":"DDMMYYYY",
  "destFolder":"",
  "imgFormats":["png","jpg","jpeg","tiff"],
  "noTags": {
    "dateFormatName":"YYYYMMDD",
    "datePrefix":"IMG-"
  },
  "withTags":{
    "hierarchical": true,
    "withDate":true,
    "withLocation":true,
    "withCamera":true,
    "flatSeparator":"_"
  }
}

